go 1.17

module github.com/cosmos/cosmos-sdk

require (
	github.com/99designs/keyring v1.1.6
	github.com/armon/go-metrics v0.3.10
	github.com/bgentry/speakeasy v0.1.0
	github.com/btcsuite/btcd v0.22.0-beta
	github.com/cockroachdb/apd/v2 v2.0.2
	github.com/coinbase/rosetta-sdk-go v0.7.8
	github.com/confio/ics23/go v0.7.0
	github.com/cosmos/btcutil v1.0.4
	github.com/cosmos/cosmos-proto v1.0.0-alpha7
	github.com/cosmos/cosmos-sdk/api v0.1.0
	github.com/cosmos/cosmos-sdk/db v1.0.0-beta.1
	github.com/cosmos/cosmos-sdk/errors v1.0.0-beta.3
	github.com/cosmos/go-bip39 v1.0.0
	github.com/cosmos/iavl v0.18.0
	github.com/cosmos/ledger-cosmos-go v0.11.1
	github.com/desertbit/timer v0.0.0-20180107155436-c41aec40b27f // indirect
	github.com/gogo/gateway v1.1.0
	github.com/gogo/protobuf v1.3.3
	github.com/golang/mock v1.6.0
	github.com/golang/protobuf v1.5.2
	github.com/gorilla/handlers v1.5.1
	github.com/gorilla/mux v1.8.0
	github.com/grpc-ecosystem/go-grpc-middleware v1.3.0
	github.com/grpc-ecosystem/grpc-gateway v1.16.0
	github.com/hashicorp/go-getter v1.5.11
	github.com/hashicorp/golang-lru v0.5.5-0.20210104140557-80c98217689d
	github.com/hdevalence/ed25519consensus v0.0.0-20220222234857-c00d1f31bab3
	github.com/improbable-eng/grpc-web v0.15.0
	github.com/jhump/protoreflect v1.12.0
	github.com/lazyledger/smt v0.2.1-0.20210709230900-03ea40719554
	github.com/magiconair/properties v1.8.6
	github.com/mattn/go-isatty v0.0.14
	github.com/pkg/errors v0.9.1
	github.com/prometheus/client_golang v1.12.1
	github.com/prometheus/common v0.33.0
	github.com/rakyll/statik v0.1.7
	github.com/regen-network/cosmos-proto v0.3.1
	github.com/rs/zerolog v1.26.1
	github.com/spf13/cast v1.4.1
	github.com/spf13/cobra v1.4.0
	github.com/spf13/pflag v1.0.5
	github.com/spf13/viper v1.11.0
	github.com/stretchr/testify v1.7.1
	github.com/tendermint/btcd v0.1.1
	github.com/tendermint/crypto v0.0.0-20191022145703-50d29ede1e15
	github.com/tendermint/go-amino v0.16.0
	github.com/tendermint/tendermint v0.35.4
	github.com/tendermint/tm-db v0.6.6
	golang.org/x/crypto v0.0.0-20220411220226-7b82a4e95df4
	google.golang.org/genproto v0.0.0-20220407144326-9054f6ed7bac
	google.golang.org/grpc v1.45.0
	google.golang.org/protobuf v1.28.0
	pgregory.net/rapid v0.4.7
	sigs.k8s.io/yaml v1.3.0
)

require (
	cloud.google.com/go v0.100.2 // indirect
	cloud.google.com/go/compute v1.5.0 // indirect
	cloud.google.com/go/iam v0.3.0 // indirect
	cloud.google.com/go/storage v1.14.0 // indirect
	filippo.io/edwards25519 v1.0.0-rc.1 // indirect
	github.com/Workiva/go-datastructures v1.0.53 // indirect
	github.com/aws/aws-sdk-go v1.40.45 // indirect
	github.com/beorn7/perks v1.0.1 // indirect
	github.com/bgentry/go-netrc v0.0.0-20140422174119-9fd32a8b3d3d // indirect
	github.com/cenkalti/backoff/v4 v4.1.1 // indirect
	github.com/cespare/xxhash v1.1.0 // indirect
	github.com/cespare/xxhash/v2 v2.1.2 // indirect
	github.com/cosmos/ledger-go v0.9.2 // indirect
	github.com/creachadair/taskgroup v0.3.2 // indirect
	github.com/danieljoos/wincred v1.0.2 // indirect
	github.com/davecgh/go-spew v1.1.1 // indirect
	github.com/dgraph-io/badger/v2 v2.2007.4 // indirect
	github.com/dgraph-io/ristretto v0.1.0 // indirect
	github.com/dgryski/go-farm v0.0.0-20200201041132-a6ae2369ad13 // indirect
	github.com/dustin/go-humanize v1.0.0 // indirect
	github.com/dvsekhvalnov/jose2go v0.0.0-20200901110807-248326c1351b // indirect
	github.com/facebookgo/ensure v0.0.0-20200202191622-63f1cf65ac4c // indirect
	github.com/facebookgo/subset v0.0.0-20200203212716-c811ad88dec4 // indirect
	github.com/felixge/httpsnoop v1.0.1 // indirect
	github.com/fsnotify/fsnotify v1.5.1 // indirect
	github.com/go-kit/kit v0.12.0 // indirect
	github.com/godbus/dbus v0.0.0-20190726142602-4481cbc300e2 // indirect
	github.com/golang/glog v1.0.0 // indirect
	github.com/golang/groupcache v0.0.0-20210331224755-41bb18bfe9da // indirect
	github.com/golang/snappy v0.0.4 // indirect
	github.com/google/btree v1.0.1 // indirect
	github.com/google/orderedcode v0.0.1 // indirect
	github.com/google/uuid v1.3.0 // indirect
	github.com/googleapis/gax-go/v2 v2.3.0 // indirect
	github.com/gorilla/websocket v1.5.0 // indirect
	github.com/grpc-ecosystem/go-grpc-prometheus v1.2.0 // indirect
	github.com/gsterjov/go-libsecret v0.0.0-20161001094733-a6f4afe4910c // indirect
	github.com/hashicorp/go-cleanhttp v0.5.2 // indirect
	github.com/hashicorp/go-immutable-radix v1.3.1 // indirect
	github.com/hashicorp/go-safetemp v1.0.0 // indirect
	github.com/hashicorp/go-version v1.4.0 // indirect
	github.com/hashicorp/hcl v1.0.0 // indirect
	github.com/inconshreveable/mousetrap v1.0.0 // indirect
	github.com/jmespath/go-jmespath v0.4.0 // indirect
	github.com/jmhodges/levigo v1.0.0 // indirect
	github.com/keybase/go-keychain v0.0.0-20190712205309-48d3d31d256d // indirect
	github.com/klauspost/compress v1.13.6 // indirect
	github.com/lib/pq v1.10.5 // indirect
	github.com/libp2p/go-buffer-pool v0.0.2 // indirect
	github.com/matttproud/golang_protobuf_extensions v1.0.1 // indirect
	github.com/minio/highwayhash v1.0.2 // indirect
	github.com/mitchellh/go-homedir v1.1.0 // indirect
	github.com/mitchellh/go-testing-interface v1.0.0 // indirect
	github.com/mitchellh/mapstructure v1.4.3 // indirect
	github.com/mtibben/percent v0.2.1 // indirect
	github.com/oasisprotocol/curve25519-voi v0.0.0-20210609091139-0a56a4bca00b // indirect
	github.com/pelletier/go-toml v1.9.4 // indirect
	github.com/pelletier/go-toml/v2 v2.0.0-beta.8 // indirect
	github.com/petermattis/goid v0.0.0-20180202154549-b0b1615b78e5 // indirect
	github.com/pmezard/go-difflib v1.0.0 // indirect
	github.com/prometheus/client_model v0.2.0 // indirect
	github.com/prometheus/procfs v0.7.3 // indirect
	github.com/rcrowley/go-metrics v0.0.0-20200313005456-10cdbea86bc0 // indirect
	github.com/rs/cors v1.8.2 // indirect
	github.com/sasha-s/go-deadlock v0.2.1-0.20190427202633-1595213edefa // indirect
	github.com/spf13/afero v1.8.2 // indirect
	github.com/spf13/jwalterweatherman v1.1.0 // indirect
	github.com/subosito/gotenv v1.2.0 // indirect
	github.com/syndtr/goleveldb v1.0.1-0.20210819022825-2ae1ddf74ef7 // indirect
	github.com/tecbot/gorocksdb v0.0.0-20191217155057-f0fad39f321c // indirect
	github.com/ulikunitz/xz v0.5.8 // indirect
	github.com/zondax/hid v0.9.1-0.20220302062450-5552068d2266 // indirect
	go.etcd.io/bbolt v1.3.6 // indirect
	go.opencensus.io v0.23.0 // indirect
	golang.org/x/net v0.0.0-20220412020605-290c469a71a5 // indirect
	golang.org/x/oauth2 v0.0.0-20220411215720-9780585627b5 // indirect
	golang.org/x/sync v0.0.0-20210220032951-036812b2e83c // indirect
	golang.org/x/sys v0.0.0-20220412211240-33da011f77ad // indirect
	golang.org/x/term v0.0.0-20210927222741-03fcf44c2211 // indirect
	golang.org/x/text v0.3.7 // indirect
	golang.org/x/xerrors v0.0.0-20220411194840-2f41105eb62f // indirect
	google.golang.org/api v0.74.0 // indirect
	google.golang.org/appengine v1.6.7 // indirect
	gopkg.in/ini.v1 v1.66.4 // indirect
	gopkg.in/yaml.v2 v2.4.0 // indirect
	gopkg.in/yaml.v3 v3.0.0-20210107192922-496545a6307b // indirect
	nhooyr.io/websocket v1.8.6 // indirect
)

replace github.com/gogo/protobuf => github.com/regen-network/protobuf v1.3.3-alpha.regen.1

replace github.com/99designs/keyring => github.com/cosmos/keyring v1.1.7-0.20210622111912-ef00f8ac3d76

// Fix upstream GHSA-h395-qcrw-5vmq vulnerability.
// TODO Remove it: https://github.com/cosmos/cosmos-sdk/issues/10409
replace github.com/gin-gonic/gin => github.com/gin-gonic/gin v1.7.0

replace github.com/cosmos/cosmos-sdk/db => ./db

retract v0.43.0
